module gitlab.com/alensiljak/pricedb

go 1.17

require (
	github.com/cpuguy83/go-md2man/v2 v2.0.1 // indirect
	github.com/davecgh/go-spew v1.1.0 // indirect
	github.com/piquette/finance-go v1.0.0 // indirect
	github.com/pmezard/go-difflib v1.0.0 // indirect
	github.com/russross/blackfriday/v2 v2.1.0 // indirect
	github.com/shopspring/decimal v1.3.1 // indirect
	github.com/stretchr/testify v1.7.1 // indirect
	github.com/urfave/cli/v2 v2.4.0 // indirect
	gopkg.in/yaml.v3 v3.0.0-20200313102051-9f266ea9e77c // indirect
)
